…
    ## The following objects are masked from 'package:stats':
    ## 
    ##     filter, lag

    ## The following objects are masked from 'package:base':
    ## 
    ##     intersect, setdiff, setequal, union

``` r
tibble(prefio) |> 
  count(prefio, sort = TRUE)
```

    ## # A tibble: 56 x 2
    ##      prefio     n
    ##    <prefio> <int>
    ##  1        D    12
    ##  2        A     5
    ##  3        E     5
    ##  4        C     5
    ##  5        G     5
    ##  6        J     5
    ##  7        F     4
    ##  8        I     4
    ##  9        B     4
    ## 10        H     3
    ## # i 46 more rows
…
